{
  "COUNT": "51",
  "ITEMS": [
    {
      "netflixid": "80136453",
      "title": "Glowing Embers",
      "image": "http://art-0.nflximg.net/37003/75d502c25cbea37c1a3967625fed4d05da937003.jpg",
      "synopsis": "Amid Malaysia&#39;s charcoal industry, a woman deftly adapts to her environs as she juggles three men in her life: her husband, her lover and her friend.",
      "rating": "0",
      "type": "series",
      "released": "2010",
      "runtime": "",
      "largeimage": "",
      "unogsdate": "2017-08-16",
      "imdbid": "notfound",
      "download": "0"
    },
    {
      "netflixid": "80137918",
      "title": "Women on the Breadfruit Tree",
      "image": "http://art-1.nflximg.net/fa732/f126f12ba7ac613b761943cfb919b9d181dfa732.jpg",
      "synopsis": "Three best friends who would do anything for one another put their commitment to the test as they help one another navigate their respective romances.",
      "rating": "0",
      "type": "series",
      "released": "2015",
      "runtime": "",
      "largeimage": "",
      "unogsdate": "2017-08-16",
      "imdbid": "notfound",
      "download": "0"
    },
    {
      "netflixid": "80176179",
      "title": "Hogie the Globehopper",
      "image": "http://art-0.nflximg.net/99146/97df7e5413627c6733f338016178d764bcf99146.jpg",
      "synopsis": "Hogie and his friends travel the world, exploring far-flung locales like Buenos Aires, Cairo, Hawaii and the Galapagos Islands.",
      "rating": "0",
      "type": "series",
      "released": "2016",
      "runtime": "",
      "largeimage": "",
      "unogsdate": "2017-08-16",
      "imdbid": "notfound",
      "download": "0"
    },
    {
      "netflixid": "80105381",
      "title": "Donald Cried",
      "image": "http://art-2.nflximg.net/96eb8/ecb79cc304459c3fe46160c565f35c9ca9a96eb8.jpg",
      "synopsis": "When a slick New Yorker returns to his working-class hometown to settle his grandmother&#39;s estate, he runs into a childhood friend he hoped to avoid.",
      "rating": "0",
      "type": "movie",
      "released": "2016",
      "runtime": "1h28m",
      "largeimage": "",
      "unogsdate": "2017-08-16",
      "imdbid": "tt4442604",
      "download": "0"
    },
    {
      "netflixid": "80136455",
      "title": "The Iron Lady",
      "image": "http://art-2.nflximg.net/50aed/8dcc0359ae9b0612b7adf7906badb27e4be50aed.jpg",
      "synopsis": "After business troubles destroy her father, a headstrong young woman does battle with her deeply patriarchal culture to secure her family&#39;s legacy.",
      "rating": "0",
      "type": "series",
      "released": "2009",
      "runtime": "",
      "largeimage": "",
      "unogsdate": "2017-08-16",
      "imdbid": "notfound",
      "download": "0"
    },
    {
      "netflixid": "80126750",
      "title": "Gold",
      "image": "http://art-2.nflximg.net/2ec38/0a730051cbb834ba52467af894c0a4cdab62ec38.jpg",
      "synopsis": "A hapless but driven prospector pursues wealth and fame by teaming up with a mysterious geologist to search for gold in Indonesia.",
      "rating": "0",
      "type": "movie",
      "released": "2016",
      "runtime": "2h0m",
      "largeimage": "",
      "unogsdate": "2017-08-16",
      "imdbid": "tt1800302",
      "download": "0"
    },
    {
      "netflixid": "80097515",
      "title": "All These Sleepless Nights",
      "image": "http://art-2.nflximg.net/9871f/5c1236f115a20f4e6fd165db57a04f041379871f.jpg",
      "synopsis": "Art school classmates Kris and Michal roam the streets of Warsaw on a beat-fueled quest for self-discovery and beautiful decadence.",
      "rating": "0",
      "type": "movie",
      "released": "2016",
      "runtime": "1h43m",
      "largeimage": "",
      "unogsdate": "2017-08-16",
      "imdbid": "tt5146068",
      "download": "0"
    },
    {
      "netflixid": "80175619",
      "title": "Glitter Force Doki Doki",
      "image": "http://art-2.nflximg.net/a1381/825111a33c7c254679d2e8d73c11703d4a9a1381.jpg",
      "synopsis": "Four girls summon their inner superheroes to defend Earth and the magical kingdom of Splendorius from King Mercenare and his minions.",
      "rating": "0",
      "type": "series",
      "released": "2017",
      "runtime": "",
      "largeimage": "",
      "unogsdate": "2017-08-18",
      "imdbid": "notfound",
      "download": "0"
    },
    {
      "netflixid": "80146805",
      "title": "What Happened to Monday",
      "image": "http://art-2.nflximg.net/e4503/8409f4936b5150b603f523d4e6dcb071bcce4503.jpg",
      "synopsis": "In a future with a strict one-child policy, six septuplets must avoid government detection while searching for their missing sister.",
      "rating": "0",
      "type": "movie",
      "released": "2017",
      "runtime": "2h3m",
      "largeimage": "",
      "unogsdate": "2017-08-18",
      "imdbid": "tt1536537",
      "download": "0"
    },
    {
      "netflixid": "80190984",
      "title": "Copy and a Half: New Recruit",
      "image": "http://art-0.nflximg.net/6555f/ca8bee9bbf8a2443d4199e7ab33cb66545e6555f.jpg",
      "synopsis": "A world-weary detective is forced to team up with a 12-year-old who thinks she&#39;s a cop in order to solve a case that&#39;s baffled police.",
      "rating": "0",
      "type": "movie",
      "released": "2017",
      "runtime": "1h36m",
      "largeimage": "",
      "unogsdate": "2017-08-18",
      "imdbid": "tt6212210",
      "download": "0"
    },
    {
      "netflixid": "80191680",
      "title": "White Gold",
      "image": "http://art-0.nflximg.net/4659f/471d45536537c3ef9e5d7cedad2dc9270f34659f.jpg",
      "synopsis": "In 1980s Essex, cocky salesman Vincent Swan and his unscrupulous team will do anything to get the sale -- including throwing honesty out the window.",
      "rating": "0",
      "type": "series",
      "released": "2017",
      "runtime": "",
      "largeimage": "",
      "unogsdate": "2017-08-18",
      "imdbid": "tt6010920",
      "download": "0"
    },
    {
      "netflixid": "60027718",
      "title": "Rugrats Go Wild",
      "image": "http://art-1.nflximg.net/6636c/18525e1875c535da6a288408377a792ec6c6636c.jpg",
      "synopsis": "When their broken-down cruise ship strands them on an island, the Pickles family crosses paths with the Thornberrys, who are filming a documentary.",
      "rating": "3.6288667",
      "type": "movie",
      "released": "2003",
      "runtime": "1h21m",
      "largeimage": "",
      "unogsdate": "2017-08-18",
      "imdbid": "tt0337711",
      "download": "1"
    },
    {
      "netflixid": "60021799",
      "title": "I Am Sam",
      "image": "http://art-1.nflximg.net/d4580/b3dee613122ec387613a6b72cd26dad5740d4580.jpg",
      "synopsis": "A grown man with the mental capacity of a 7-year-old raises his baby alone until child protective services deems him an unfit guardian.",
      "rating": "3.803037",
      "type": "movie",
      "released": "2001",
      "runtime": "2h12m",
      "largeimage": "http://cdn1.nflximg.net/images/9919/22509919.jpg",
      "unogsdate": "2017-08-18",
      "imdbid": "tt0277027",
      "download": "1"
    },
    {
      "netflixid": "60036228",
      "title": "Sky Captain and the World of Tomorrow",
      "image": "http://art-0.nflximg.net/81a88/da9b1fe956ce0d6e76bebf092466db6650081a88.jpg",
      "synopsis": "When scientists the world over keep disappearing without a trace, it&#39;s up to intrepid reporter Polly and top aviator Sky Captain to uncover the truth.",
      "rating": "3.0310001",
      "type": "movie",
      "released": "2004",
      "runtime": "1h46m",
      "largeimage": "http://cdn1.nflximg.net/images/0135/22890135.jpg",
      "unogsdate": "2017-08-18",
      "imdbid": "tt0346156",
      "download": "0"
    },
    {
      "netflixid": "80203206",
      "title": "Sports Adventure",
      "image": "http://art-0.nflximg.net/3ca8a/3b52836c719a509436f9bdd46a81e7b166a3ca8a.jpg",
      "synopsis": "Climbers, skiers, kayakers, surfers and other sports enthusiasts are out to challenge the ultimate competitor: Mother Nature.",
      "rating": "0",
      "type": "series",
      "released": "2012",
      "runtime": "",
      "largeimage": "",
      "unogsdate": "2017-08-18",
      "imdbid": "notfound",
      "download": "0"
    },
    {
      "netflixid": "80156336",
      "title": "The Polarman",
      "image": "http://art-2.nflximg.net/7dddd/0795fe7cb8917d438f6ddb6dcf339db1add7dddd.jpg",
      "synopsis": "Arctic explorer Peter Valusiak thrives where others wouldn&#39;t dare venture. Where temperatures are at their lowest, he&#39;s at his best.",
      "rating": "0",
      "type": "movie",
      "released": "2016",
      "runtime": "55m",
      "largeimage": "",
      "unogsdate": "2017-08-18",
      "imdbid": "notfound",
      "download": "0"
    },
    {
      "netflixid": "80180182",
      "title": "Norsemen",
      "image": "http://art-1.nflximg.net/d1f15/4149ec1277f258668fa457df1f7a2124080d1f15.jpg",
      "synopsis": "The residents of an 8th-century Viking village experience political rivalry, social change and innovations that upend their culture and way of life.",
      "rating": "0",
      "type": "series",
      "released": "2016",
      "runtime": "",
      "largeimage": "",
      "unogsdate": "2017-08-18",
      "imdbid": "tt5905354",
      "download": "0"
    },
    {
      "netflixid": "80002566",
      "title": "Marvel&#39;s The Defenders",
      "image": "http://art-1.nflximg.net/9638b/6142ff807e709a88ba872a8eebd1001c5cc9638b.jpg",
      "synopsis": "Daredevil, Jessica Jones, Luke Cage and Iron Fist join forces to take on common enemies as a sinister conspiracy threatens New York City.",
      "rating": "0",
      "type": "series",
      "released": "2017",
      "runtime": "",
      "largeimage": "",
      "unogsdate": "2017-08-18",
      "imdbid": "tt4230076",
      "download": "0"
    },
    {
      "netflixid": "80153897",
      "title": "Hide and Seek",
      "image": "http://art-2.nflximg.net/5c9c1/50d6aafbd6915f917ee3402ac6493124cb25c9c1.jpg",
      "synopsis": "While living a comfortable life with his wife and child, a germophobic man realizes his estranged brother may have committed a terrible crime.",
      "rating": "0",
      "type": "movie",
      "released": "2016",
      "runtime": "1h44m",
      "largeimage": "",
      "unogsdate": "2017-08-19",
      "imdbid": "tt5662906",
      "download": "0"
    },
    {
      "netflixid": "80138469",
      "title": "Railroad Tigers",
      "image": "http://art-0.nflximg.net/abfe3/1ecd61b7c4176dbea99dfac21d123619b19abfe3.jpg",
      "synopsis": "During World War II, a Chinese railroad worker leads a group of brave resistance fighters against the forces of Japanese occupation.",
      "rating": "0",
      "type": "movie",
      "released": "2016",
      "runtime": "2h4m",
      "largeimage": "",
      "unogsdate": "2017-08-19",
      "imdbid": "tt4687848",
      "download": "0"
    },
    {
      "netflixid": "80162179",
      "title": "Camera Store",
      "image": "http://art-1.nflximg.net/51bd3/15cd22a2f0cd2c465665e54f0bbf50f127751bd3.jpg",
      "synopsis": "With the digital revolution just around the corner, the employees of Bibideaux camera store strive to stay relevant amid unstoppable change.",
      "rating": "0",
      "type": "movie",
      "released": "2016",
      "runtime": "1h44m",
      "largeimage": "",
      "unogsdate": "2017-08-20",
      "imdbid": "tt4651666",
      "download": "0"
    },
    {
      "netflixid": "70252879",
      "title": "Beautiful Creatures",
      "image": "http://art-1.nflximg.net/d9625/e270f900020f58b9137ba4ce612376c2ae2d9625.jpg",
      "synopsis": "Based on the best-selling novel, this supernatural drama focuses on the romance between Ethan and Lena, the enigmatic new girl in his Southern town.",
      "rating": "3.7345695",
      "type": "movie",
      "released": "2013",
      "runtime": "2h3m",
      "largeimage": "http://cdn0.nflximg.net/images/3876/22313876.jpg",
      "unogsdate": "2017-08-21",
      "imdbid": "tt1559547",
      "download": "0"
    },
    {
      "netflixid": "80163407",
      "title": "KL Zombi",
      "image": "http://art-2.nflximg.net/5dd10/4cc424a3961e125e7a0501062babebcd8495dd10.jpg",
      "synopsis": "A field hockey-playing pizza delivery boy finds himself transformed from slacker to zombie slayer during an outbreak of the undead in Kuala Lumpur.",
      "rating": "0",
      "type": "movie",
      "released": "2013",
      "runtime": "1h32m",
      "largeimage": "",
      "unogsdate": "2017-08-21",
      "imdbid": "tt3132450",
      "download": "0"
    },
    {
      "netflixid": "80134952",
      "title": "Bad Rap",
      "image": "http://art-2.nflximg.net/4a29b/4b9b7deae84a52906ed2fc242c3775bcb674a29b.jpg",
      "synopsis": "Four young Asian-American rappers strive to achieve success on their own terms in a musical genre that often treats them as outsiders.",
      "rating": "0",
      "type": "movie",
      "released": "2016",
      "runtime": "1h22m",
      "largeimage": "",
      "unogsdate": "2017-08-21",
      "imdbid": "tt5264178",
      "download": "0"
    },
    {
      "netflixid": "80163265",
      "title": "Rembat",
      "image": "http://art-1.nflximg.net/27e03/09bd89d7785f18e03cb1be702679f1e97cd27e03.jpg",
      "synopsis": "Two huge soccer fans must go on a rambunctious road trip to fix a big match between Malaysia and Thailand, or they&#39;ll draw the ire of a loan shark.",
      "rating": "0",
      "type": "movie",
      "released": "2015",
      "runtime": "1h27m",
      "largeimage": "",
      "unogsdate": "2017-08-21",
      "imdbid": "tt3761448",
      "download": "0"
    },
    {
      "netflixid": "80171742",
      "title": "Unacknowledged",
      "image": "http://art-0.nflximg.net/c1760/1a0eec5e919fc93e37876bc52a213b66b91c1760.jpg",
      "synopsis": "Noted UFO expert Dr. Steven Greer interviews witnesses and presents classified documents concerning the existence of extraterrestrials.",
      "rating": "0",
      "type": "movie",
      "released": "2017",
      "runtime": "1h43m",
      "largeimage": "",
      "unogsdate": "2017-08-21",
      "imdbid": "tt6400614",
      "download": "0"
    },
    {
      "netflixid": "80113701",
      "title": "The Good Place",
      "image": "http://art-0.nflximg.net/ec3a1/2663fa9390fffb3a81e4da310043c90572fec3a1.jpg",
      "synopsis": "Due to an error, self-absorbed Eleanor Shellstrop arrives at the Good Place after her death. Determined to stay, she tries to become a better person.",
      "rating": "0",
      "type": "series",
      "released": "2016",
      "runtime": "",
      "largeimage": "",
      "unogsdate": "2017-08-21",
      "imdbid": "tt4955642",
      "download": "0"
    },
    {
      "netflixid": "80163054",
      "title": "Sadie&#39;s Last Days on Earth",
      "image": "http://art-0.nflximg.net/08aea/794a7351714e8d789db9b9c71a64a70aa7608aea.jpg",
      "synopsis": "High schooler Sadie Mitchell believes the world is about to end -- literally. Before it does, she sets out to kiss a boy and win back her best friend.",
      "rating": "0",
      "type": "movie",
      "released": "2016",
      "runtime": "1h33m",
      "largeimage": "",
      "unogsdate": "2017-08-22",
      "imdbid": "tt5777802",
      "download": "0"
    },
    {
      "netflixid": "80163295",
      "title": "Hati Perempuan",
      "image": "http://art-1.nflximg.net/20a4a/46826e3a411275b095110adb90243d98abd20a4a.jpg",
      "synopsis": "Sparks of both passion and contempt fly when a self-sufficient architect is forced to work with a snobbish industrialist.",
      "rating": "0",
      "type": "series",
      "released": "2015",
      "runtime": "",
      "largeimage": "",
      "unogsdate": "2017-08-22",
      "imdbid": "notfound",
      "download": "0"
    },
    {
      "netflixid": "80185322",
      "title": "Lynne Koplitz: Hormonal Beast",
      "image": "http://art-2.nflximg.net/61c6e/c4ae3b9dec86d9dc5a5d043b14ea442476161c6e.jpg",
      "synopsis": "Unabashed comedian Lynne Koplitz offers a woman&#39;s take on being crazy, the benefits of childlessness and the three things all men really want.",
      "rating": "0",
      "type": "movie",
      "released": "2017",
      "runtime": "51m",
      "largeimage": "",
      "unogsdate": "2017-08-22",
      "imdbid": "tt6892388",
      "download": "0"
    },
    {
      "netflixid": "80105356",
      "title": "Alive and Kicking",
      "image": "http://art-1.nflximg.net/17864/695059cab90a6b74cab79a0d5b7e037e33c17864.jpg",
      "synopsis": "Take an inside look at swing dancing&#39;s continued prosperity and the lively and joyous personalities that make the art form so unique.",
      "rating": "0",
      "type": "movie",
      "released": "2016",
      "runtime": "1h28m",
      "largeimage": "",
      "unogsdate": "2017-08-22",
      "imdbid": "tt4329394",
      "download": "0"
    },
    {
      "netflixid": "80128689",
      "title": "Feel Rich",
      "image": "http://art-0.nflximg.net/49306/fa09db0888b1e7f01ef8b67475bf75e802849306.jpg",
      "synopsis": "Talking squarely to the hip-hop generation, musicians, athletes and others outline the benefits of exercise, a healthy diet and spiritual wellness.",
      "rating": "0",
      "type": "movie",
      "released": "2017",
      "runtime": "1h10m",
      "largeimage": "",
      "unogsdate": "2017-08-23",
      "imdbid": "tt6285404",
      "download": "0"
    },
    {
      "netflixid": "80108569",
      "title": "AWOL",
      "image": "http://art-1.nflximg.net/c2dc3/011fc27e876176e73a7ed174a0e64938e4fc2dc3.jpg",
      "synopsis": "A young woman about to join the military meets a married woman with two kids and falls deeply in love, upending their entire lives.",
      "rating": "0",
      "type": "movie",
      "released": "2016",
      "runtime": "1h22m",
      "largeimage": "",
      "unogsdate": "2017-08-23",
      "imdbid": "tt4462372",
      "download": "0"
    },
    {
      "netflixid": "70044605",
      "title": "The Pursuit of Happyness",
      "image": "http://art-2.nflximg.net/d7782/fe2167581c4168a160a0e3491003321f70ad7782.jpg",
      "synopsis": "When Chris and his son are evicted, they face trying times as a desperate Chris accepts an unpaid internship at a stock brokerage firm.",
      "rating": "3.9866517",
      "type": "movie",
      "released": "2006",
      "runtime": "1h57m",
      "largeimage": "",
      "unogsdate": "2017-08-24",
      "imdbid": "tt0454921",
      "download": "1"
    },
    {
      "netflixid": "80177077",
      "title": "Drone",
      "image": "http://art-1.nflximg.net/45df4/53ec27ef1c62e35f5e6f2bbda153f14d01b45df4.jpg",
      "synopsis": "A drone pilot&#39;s comfortable life takes a nosedive when he&#39;s confronted by a man whose family was killed by missile attacks in the Middle East.",
      "rating": "0",
      "type": "movie",
      "released": "2017",
      "runtime": "1h29m",
      "largeimage": "",
      "unogsdate": "2017-08-24",
      "imdbid": "tt5352846",
      "download": "0"
    },
    {
      "netflixid": "80156226",
      "title": "Pygmies: The Children of the Jungle",
      "image": "http://art-0.nflximg.net/7dacb/2081ea4cabd18a5ea5b384b8a4f63c3cc3d7dacb.jpg",
      "synopsis": "A filmmaker travels to the Central African Republic to fulfill a childhood dream of meeting the enigmatic Pygmy people.",
      "rating": "0",
      "type": "movie",
      "released": "2011",
      "runtime": "52m",
      "largeimage": "",
      "unogsdate": "2017-08-24",
      "imdbid": "tt2130173",
      "download": "0"
    },
    {
      "netflixid": "80156337",
      "title": "Top 10 Architecture",
      "image": "http://art-0.nflximg.net/c92f6/b1b8dcf1a6abe9f7585b7975df13870f04ec92f6.jpg",
      "synopsis": "This series offers a fresh perspective on some of the most unique and beautiful buildings, structures and bridges from around the world.",
      "rating": "0",
      "type": "series",
      "released": "2016",
      "runtime": "",
      "largeimage": "",
      "unogsdate": "2017-08-24",
      "imdbid": "tt6767882",
      "download": "0"
    },
    {
      "netflixid": "80122759",
      "title": "Death Note",
      "image": "http://art-1.nflximg.net/0021f/fb5253bcdff18a81f651055aeaed55d69400021f.jpg",
      "synopsis": "Light Turner finds a supernatural notebook and uses it to mete out death, attracting the attention of a detective, a demon and a girl in his class.",
      "rating": "0",
      "type": "movie",
      "released": "2017",
      "runtime": "1h40m",
      "largeimage": "",
      "unogsdate": "2017-08-25",
      "imdbid": "tt1241317",
      "download": "0"
    },
    {
      "netflixid": "80117694",
      "title": "Disjointed",
      "image": "http://art-1.nflximg.net/0d218/f62f0addaa093bdccc76327a985da0777b60d218.jpg",
      "synopsis": "Pot activist Ruth Whitefeather Feldman runs a medical marijuana dispensary while encouraging her loyal patients to chill out and enjoy the high life.",
      "rating": "0",
      "type": "series",
      "released": "2017",
      "runtime": "",
      "largeimage": "",
      "unogsdate": "2017-08-25",
      "imdbid": "tt5884792",
      "download": "0"
    },
    {
      "netflixid": "80132127",
      "title": "Behind &#39;The Cove&#39;: The Quiet Japanese Speak Out",
      "image": "http://art-0.nflximg.net/3ab33/58b535b63bfd69ff63f902faca0a5b141223ab33.jpg",
      "synopsis": "After a documentary about the Japanese whaling industry garnered international attention, an amateur filmmaker decides to tell the rest of the story.",
      "rating": "0",
      "type": "movie",
      "released": "2016",
      "runtime": "1h45m",
      "largeimage": "",
      "unogsdate": "2017-08-25",
      "imdbid": "tt5014146",
      "download": "0"
    },
    {
      "netflixid": "80164392",
      "title": "Berlin Syndrome",
      "image": "http://art-0.nflximg.net/ddbde/cb7432a36921d9aebd17345b1709d837b71ddbde.jpg",
      "synopsis": "What starts as a passionate one-night stand quickly turns sinister when Clare learns she&#39;s locked inside Andi&#39;s apartment with no way out.",
      "rating": "0",
      "type": "movie",
      "released": "2017",
      "runtime": "1h55m",
      "largeimage": "",
      "unogsdate": "2017-08-25",
      "imdbid": "tt3335606",
      "download": "0"
    },
    {
      "netflixid": "80100846",
      "title": "Commandos",
      "image": "http://art-0.nflximg.net/f9c96/a8eaee3ae03492f83169c23bd293746ec32f9c96.jpg",
      "synopsis": "In the Singapore Armed Forces, commandos are the best of the best. But earning the right to wear a prestigious red beret takes serious sacrifice.",
      "rating": "0",
      "type": "series",
      "released": "2015",
      "runtime": "",
      "largeimage": "",
      "unogsdate": "2017-08-25",
      "imdbid": "notfound",
      "download": "0"
    },
    {
      "netflixid": "80163366",
      "title": "Pekak",
      "image": "http://art-0.nflximg.net/53916/f952f81ae3052257f0b64f92cad4cddd64a53916.jpg",
      "synopsis": "Desperate to escape her tyrannical father, a rebellious teen befriends a deaf drug pusher who&#39;s saving up his money for cochlear implants.",
      "rating": "0",
      "type": "movie",
      "released": "2016",
      "runtime": "1h35m",
      "largeimage": "",
      "unogsdate": "2017-08-25",
      "imdbid": "tt4810104",
      "download": "0"
    },
    {
      "netflixid": "80100845",
      "title": "Saving Sirga: Journey into the Heart of a Lion",
      "image": "http://art-2.nflximg.net/972e5/8cb19d583ae57f590dab75e023b643fff19972e5.jpg",
      "synopsis": "Witness the warm bond that develops between conservationist Valentin Gruener and the lion cub he rescues from a Botswana game farm and raises by hand.",
      "rating": "0",
      "type": "series",
      "released": "2016",
      "runtime": "",
      "largeimage": "",
      "unogsdate": "2017-08-25",
      "imdbid": "notfound",
      "download": "0"
    },
    {
      "netflixid": "80161232",
      "title": "Madre",
      "image": "http://art-2.nflximg.net/6a3c8/2258eef391ab86e6f265aec1f90555b59546a3c8.jpg",
      "synopsis": "Pregnant and overwhelmed, Diana hires a caretaker for her son with severe autism. But she soon begins to fear the new nanny has sinister intentions.",
      "rating": "0",
      "type": "movie",
      "released": "2016",
      "runtime": "1h34m",
      "largeimage": "",
      "unogsdate": "2017-08-26",
      "imdbid": "tt5707304",
      "download": "0"
    },
    {
      "netflixid": "80152442",
      "title": "Buster&#39;s Mal Heart",
      "image": "http://art-2.nflximg.net/9c812/17049b057abd92f8cddcb796f55d9908d209c812.jpg",
      "synopsis": "On the run from authorities, a troubled man recalls the mysterious events -- and the strange drifter -- that inspired his unusual transformation.",
      "rating": "0",
      "type": "movie",
      "released": "2016",
      "runtime": "1h37m",
      "largeimage": "",
      "unogsdate": "2017-08-26",
      "imdbid": "tt5173032",
      "download": "0"
    },
    {
      "netflixid": "80185928",
      "title": "The Hippopotamus",
      "image": "http://art-2.nflximg.net/45ca2/68edeba1e3f6d9daa8a16f0109f8bed387245ca2.jpg",
      "synopsis": "In need of money to fund his boozing, a once esteemed poet takes a lucrative job investigating the alleged miracles that occur at a country estate.",
      "rating": "0",
      "type": "movie",
      "released": "2017",
      "runtime": "1h29m",
      "largeimage": "",
      "unogsdate": "2017-08-27",
      "imdbid": "tt3758708",
      "download": "0"
    },
    {
      "netflixid": "80163159",
      "title": "Menorca",
      "image": "http://art-0.nflximg.net/eab3e/0240013249e9b39d8cf5747c04577f31013eab3e.jpg",
      "synopsis": "A hedonistic soccer mom takes a voyage of self-discovery when she tries to reconnect with her son by returning his pet rock to a Mediterranean island.",
      "rating": "0",
      "type": "movie",
      "released": "2016",
      "runtime": "1h21m",
      "largeimage": "",
      "unogsdate": "2017-08-27",
      "imdbid": "tt4785662",
      "download": "0"
    },
    {
      "netflixid": "80059505",
      "title": "3 Generations",
      "image": "http://art-2.nflximg.net/dce6f/7a452ac8557c0aaf5c3fb2491114df6d3eedce6f.jpg",
      "synopsis": "When teenage Ray begins transitioning from female to male, his single mom and grandmother must cope with the change while tracking down his father.",
      "rating": "0",
      "type": "movie",
      "released": "2015",
      "runtime": "1h32m",
      "largeimage": "",
      "unogsdate": "2017-08-28",
      "imdbid": "tt4158624",
      "download": "0"
    },
    {
      "netflixid": "80107575",
      "title": "Dying to Know: Ram Dass and Timothy Leary",
      "image": "http://art-0.nflximg.net/4cb30/a1adcdb5f55a755e38e633b7662d47ec2f54cb30.jpg",
      "synopsis": "Icons of &#39;60s counterculture, Harvard psychologists Timothy Leary and Ram Dass became estranged until an illness inspired their fascinating reunion.",
      "rating": "0",
      "type": "movie",
      "released": "2016",
      "runtime": "1h35m",
      "largeimage": "",
      "unogsdate": "2017-08-29",
      "imdbid": "tt2516424",
      "download": "0"
    },
    {
      "netflixid": "80184834",
      "title": "Ryan Hamilton: Happy Face",
      "image": "http://art-0.nflximg.net/9cb57/7628114f9f1415a0c36f01fe31a404d61b59cb57.jpg",
      "synopsis": "Small-town import Ryan Hamilton charms New York with folksy comic observations on big-city life, hot-air ballooning and going to Disney World alone.",
      "rating": "0",
      "type": "movie",
      "released": "2017",
      "runtime": "56m",
      "largeimage": "",
      "unogsdate": "2017-08-29",
      "imdbid": "tt6892378",
      "download": "0"
    }
  ]
}